[gd_scene load_steps=4 format=2]

[ext_resource path="res://Scenes/OmigaDevice.tscn" type="PackedScene" id=1]
[ext_resource path="res://Sprites/Creature4.png" type="Texture" id=2]
[ext_resource path="res://Sound/alarm2.wav" type="AudioStream" id=3]

[node name="YellowOmigaDevice" instance=ExtResource( 1 )]

[node name="Shell" parent="." index="3"]
color = Color( 0.627451, 0.588235, 0, 1 )

[node name="Omiga" parent="." index="4"]
bowels_inc = 0.04
food_bowel_increase = 0.2

[node name="Sprite" parent="Omiga/Screen/Creature" index="0"]
texture = ExtResource( 2 )

[node name="ZSprite" parent="Omiga/Screen/Creature" index="3"]
frame = 1

[node name="Poop" parent="Omiga/Screen" index="1"]
frame = 0

[node name="AudioAlarmPlayer" parent="." index="17"]
stream = ExtResource( 3 )

[editable path="Omiga"]

[editable path="Omiga/Screen/Creature"]
