[gd_scene load_steps=3 format=2]

[ext_resource path="res://Scripts/Keychain.gd" type="Script" id=2]
[ext_resource path="res://Sprites/Keyring.png" type="Texture" id=3]

[node name="Keychain" type="Node2D"]
script = ExtResource( 2 )

[node name="Sprite" type="Sprite" parent="."]
position = Vector2( -21, -17 )
texture = ExtResource( 3 )
